 -17332.845703
 -17372.789062
 -17568.068359
 -17265.447266
 -17388.464844
 -17532.291016
 -17461.029297
 -17466.869141
 -17490.664062
 -17685.535156
 -17300.484375
 -17517.500000
 -17502.910156
 -17564.273438
 -17423.878906
 -17532.185547
 -17632.910156
 -17339.187500
 -17372.544922
 -17204.164062
 -17304.919922
 -17510.542969
 -17445.060547
 -17563.345703
 -17604.150391
 -17546.406250
 -17618.035156
 -17381.580078
 -17631.921875
 -17497.042969
 -17578.097656
 -17562.945312
 -17653.697266
 -17464.105469
 -17520.234375
 -17426.808594
 -17347.175781
 -17166.775391
 -17561.578125
 -17349.728516
 -17381.564453
 -17449.263672
 -17441.523438
 -17592.183594
 -17475.839844
 -17287.738281
 -17458.111328
 -17450.927734
 -17432.427734
 -17483.912109
 -17349.564453
 -17590.175781
 -17670.726562
 -17638.429688
 -17673.513672
 -17558.177734
 -17379.679688
 -17610.703125
 -17499.435547
 -17542.847656
 -17714.388672
 -17589.802734
 -17549.316406
 -17583.902344
 -17509.781250
 -17592.322266
 -17522.738281
 -17586.636719
 -17583.992188
 -17512.236328
 -17710.898438
 -17732.837891
 -17527.501953
 -17354.695312
 -17478.402344
 -17451.222656
 -17435.955078
 -17472.037109
 -17441.949219
 -17442.652344
 -17415.259766
 -17503.289062
 -17426.039062
 -17588.341797
 -17490.697266
 -17555.480469
 -17673.160156
 -17323.916016
 -17327.814453
 -17398.142578
 -17399.492188
 -17168.843750
 -17395.103516
 -17435.609375
 -17665.820312
 -17563.283203
 -17476.796875
 -17313.949219
 -17650.636719
 -17710.884766
 -17395.992188
 -17367.236328
 -17513.585938
 -17506.519531
 -17614.550781
 -17374.058594
 -17537.697266
 -17379.367188
 -17350.400391
 -17500.066406
 -17551.384766
 -17349.896484
 -17565.251953
 -17456.980469
 -17419.339844
 -17434.505859
 -17403.269531
 -17238.171875
 -17416.234375
 -17656.289062
 -17595.431641
 -17354.144531
 -17430.687500
 -17482.513672
 -17676.884766
 -17588.609375
 -17339.347656
 -17430.099609
 -17136.677734
 -17614.449219
 -17341.427734
 -17428.763672
 -17513.384766
 -17681.316406
 -17640.857422
 -17455.103516
 -17200.308594
 -17368.664062
 -17346.048828
 -17553.697266
 -17502.296875
 -17501.132812
 -17571.091797
 -17605.287109
 -17464.427734
 -17327.373047
 -17506.316406
 -17506.687500
 -17700.867188
 -17390.988281
 -17368.712891
 -17321.648438
 -17466.542969
 -17514.675781
 -17217.748047
 -17344.279297
 -17131.806641
 -17438.792969
 -17510.587891
 -17627.910156
 -17523.994141
 -17655.642578
 -17600.158203
 -17318.246094
 -17537.060547
 -17692.828125
 -17600.025391
 -17536.150391
 -17480.242188
 -17383.707031
 -17297.910156
 -17510.812500
 -17750.597656
 -17596.755859
 -17291.583984
 -17458.423828
 -17661.162109
 -17402.269531
 -17406.996094
 -17408.755859
 -17328.679688
 -17508.619141
 -17344.054688
 -17349.921875
 -17385.199219
 -17599.431641
 -17406.958984
 -17585.925781
 -17585.365234
 -17256.185547
 -17698.257812
 -17535.859375
 -17703.291016
 -17528.689453
 -17847.572266
 -17804.197266
 -17739.349609
 -17518.925781
 -17464.595703
 -17618.916016
 -17509.972656
 -17621.414062
 -17531.548828
 -17635.697266
 -17532.296875
 -17636.359375
 -17676.337891
 -17657.392578
 -17466.197266
 -17527.576172
 -17480.021484
 -17129.214844
 -17637.416016
 -17416.527344
 -17420.255859
 -17475.708984
 -17470.800781
 -17274.058594
 -17530.650391
 -17513.119141
 -17621.164062
 -17468.531250
 -17553.939453
 -17498.783203
 -17508.976562
 -17492.697266
 -17491.078125
 -17427.546875
 -17686.832031
 -17692.800781
 -17587.529297
 -17569.533203
 -17440.878906
 -17562.746094
 -17660.517578
 -17411.515625
 -17428.841797
 -17637.738281
 -17401.578125
 -17439.386719
 -17485.935547
 -17488.183594
 -17629.998047
 -17683.873047
 -17391.314453
 -17494.601562
 -17434.804688
 -17471.287109
 -17419.285156
 -17367.158203
 -17353.244141
 -17327.494141
 -17430.947266
 -17456.113281
 -17238.589844
 -17045.884766
 -17398.951172
 -17424.927734
 -17432.027344
 -17476.722656
 -17604.691406
 -17428.072266
 -17323.507812
 -17627.294922
 -17412.677734
 -17538.205078
 -17544.394531
 -17689.160156
 -17385.458984
 -17404.957031
 -17400.328125
 -17363.287109
 -17445.787109
 -17325.501953
 -17491.939453
 -17459.691406
 -17428.013672
 -17555.183594
 -17395.623047
 -17560.498047
 -17416.927734
 -17559.230469
 -17717.365234
 -17603.910156
 -17191.646484
 -17304.105469
 -17480.091797
 -17502.253906
 -17479.826172
 -17677.503906
 -17467.841797
 -17452.835938
 -17428.203125
 -17207.562500
 -17416.158203
 -17428.316406
 -17667.289062
 -17479.943359
 -17621.759766
 -17426.396484
 -17592.343750
 -17343.369141
 -17493.439453
 -17392.074219
 -17371.867188
 -17489.167969
 -17582.316406
 -17659.314453
 -17692.736328
 -17527.386719
 -17512.355469
 -17417.453125
 -17553.800781
 -17382.228516
 -17371.429688
 -17548.144531
 -17709.167969
 -17516.417969
 -17672.621094
 -17824.380859
 -17711.408203
 -17402.332031
 -17268.855469
 -17482.701172
 -17403.900391
 -17629.919922
 -17810.001953
 -17470.386719
 -17420.517578
 -17311.070312
 -17806.849609
 -17665.957031
 -17564.779297
 -17490.425781
 -17451.128906
 -17593.658203
 -17471.753906
 -17475.572266
 -17273.310547
 -17420.666016
 -17536.314453
 -17373.605469
 -17608.964844
 -17435.541016
 -17351.275391
 -17524.992188
 -17195.666016
 -17351.476562
 -17455.037109
 -17451.853516
 -17553.589844
 -17283.455078
 -17481.845703
 -17223.902344
 -17361.894531
 -17324.212891
 -17512.632812
 -17508.273438
 -17215.644531
 -17347.748047
 -17432.146484
 -17543.287109
 -17480.125000
 -17372.662109
 -17361.359375
 -17386.189453
 -17362.257812
 -17477.421875
 -17488.531250
 -17496.080078
 -17654.734375
 -17526.568359
 -17350.556641
 -17296.978516
 -17485.154297
 -17420.892578
 -17321.818359
 -17521.542969
 -17471.173828
 -17559.710938
 -17267.166016
 -17458.394531
 -17415.347656
 -17460.501953
 -17692.630859
 -17732.761719
 -17541.382812
 -17479.878906
 -17507.476562
 -17516.000000
 -17385.978516
 -17439.449219
 -17572.431641
 -17558.763672
 -17625.923828
 -17547.755859
 -17642.130859
 -17541.251953
 -17520.681641
 -17284.556641
 -17325.492188
 -17483.929688
 -17481.824219
 -17387.421875
 -17499.195312
 -17525.964844
 -17610.476562
 -17358.998047
 -17376.550781
 -17316.865234
 -17575.400391
 -17587.730469
 -17439.470703
 -17475.533203
 -17799.392578
 -17461.585938
 -17645.013672
 -17472.210938
 -17612.093750
 -17224.263672
 -17443.074219
 -17379.722656
 -17441.933594
 -17601.537109
 -17503.289062
 -17504.644531
 -17430.107422
 -17545.720703
 -17474.259766
 -17493.339844
 -17366.535156
 -17465.359375
 -17316.816406
 -17278.251953
 -17160.164062
 -17380.777344
 -17275.724609
 -17228.781250
 -17136.728516
 -17161.167969
 -17476.367188
 -17439.484375
 -17317.277344
 -17402.152344
 -17411.960938
 -17468.908203
 -17358.443359
 -17398.630859
 -17666.236328
 -17438.410156
 -17585.322266
 -17517.414062
 -17583.722656
 -17593.474609
 -17318.626953
 -17399.103516
 -17419.439453
 -17501.425781
 -17393.441406
 -17597.617188
 -17365.986328
 -17612.638672
 -17643.433594
 -17562.314453
 -17325.617188
 -17521.603516
 -17624.300781
 -17484.343750
 -17513.353516
 -17434.328125
 -17376.378906
 -17214.154297
 -17600.531250
 -17654.332031
 -17567.128906
 -17703.476562
 -17689.906250
 -17672.900391
 -17524.748047
 -17576.732422
 -17598.519531
 -17431.738281
 -17554.873047
 -17524.052734
 -17419.939453
 -17367.193359
 -17406.466797
 -17351.765625
 -17458.064453
 -17698.429688
 -17367.958984
 -17697.488281
 -17659.353516
 -17497.830078
 -17745.410156
 -17703.509766
 -17645.941406
 -17327.107422
 -17582.460938
 -17554.300781
 -17600.591797
 -17350.203125
 -17364.462891
 -17364.064453
 -17343.453125
 -17525.054688
 -17382.591797
 -17420.847656
 -17332.671875
 -17563.294922
 -17578.781250
 -17316.675781
 -17709.193359
 -17393.289062
 -17524.986328
 -17418.400391
 -17123.929688
 -17539.753906
 -17657.832031
 -17413.652344
 -17614.144531
 -17546.257812
 -17347.056641
 -17526.697266
 -17808.773438
 -17686.751953
 -17571.388672
 -17493.285156
 -17237.800781
 -17352.519531
 -17276.046875
 -17296.730469
 -17237.515625
 -17434.802734
 -17356.699219
 -17619.666016
 -17591.023438
 -17360.468750
 -17435.314453
 -17532.535156
 -17365.244141
 -17519.957031
 -17706.228516
 -17439.564453
 -17647.660156
 -17326.500000
 -17445.513672
 -17311.261719
 -17448.296875
 -17575.521484
 -17470.812500
 -17568.521484
 -17402.037109
 -17416.503906
 -17345.517578
 -17419.441406
 -17310.265625
 -17505.500000
 -17529.792969
 -17688.207031
 -17553.396484
 -17714.849609
 -17821.517578
 -17542.699219
 -17637.455078
 -17558.257812
 -17482.542969
 -17524.947266
 -17498.884766
 -17265.552734
 -17193.576172
 -17278.429688
 -17321.871094
 -17495.472656
 -17630.669922
 -17608.730469
 -17702.376953
 -17490.570312
 -17411.470703
 -17578.634766
 -17505.562500
 -17288.271484
 -17458.208984
 -17346.941406
 -17438.193359
 -17392.960938
 -17481.544922
 -17332.982422
 -17458.343750
 -17346.158203
 -17358.625000
 -17259.814453
 -17637.554688
 -17534.455078
 -17528.119141
 -17416.923828
 -17521.869141
 -17363.521484
 -17441.781250
 -17486.580078
 -17555.263672
 -17438.582031
 -17254.167969
 -17509.603516
 -17390.121094
 -17208.804688
 -17308.035156
 -17528.181641
 -17585.992188
 -17527.763672
 -17629.869141
 -17557.347656
 -17538.169922
 -17387.576172
 -17453.785156
 -17487.955078
 -17445.947266
 -17400.427734
 -17447.539062
 -17722.861328
 -17420.650391
 -17326.648438
 -17320.558594
 -17286.636719
 -17508.552734
 -17754.351562
 -17448.646484
 -17595.300781
 -17542.689453
 -17572.623047
 -17516.058594
 -17442.732422
 -17577.271484
 -17611.919922
 -17490.861328
 -17420.603516
 -17495.224609
 -17646.154297
 -17433.958984
 -17399.777344
 -17663.080078
 -17567.466797
 -17317.630859
 -17270.962891
 -17342.968750
 -17555.298828
 -17471.564453
 -17783.085938
 -17616.128906
 -17469.767578
 -17551.500000
 -17591.875000
 -17572.326172
 -17477.054688
 -17542.544922
 -17629.392578
 -17555.396484
 -17533.044922
 -17537.158203
 -17523.712891
 -17546.552734
 -17528.710938
 -17646.531250
 -17635.654297
 -17474.050781
 -17423.183594
 -17409.326172
 -17372.691406
 -17348.673828
 -17350.597656
 -17457.583984
 -17535.976562
 -17590.585938
 -17496.072266
 -17413.326172
 -17281.162109
 -17489.000000
 -17513.410156
 -17733.050781
 -17263.400391
 -17467.230469
 -17279.904297
 -17400.777344
 -17604.957031
 -17525.619141
 -17578.087891
 -17699.859375
 -17638.546875
 -17559.378906
 -17611.427734
 -17550.066406
 -17381.253906
 -17409.259766
 -17323.910156
 -17178.039062
 -17391.443359
 -17334.564453
 -17351.730469
 -17468.878906
 -17733.568359
 -17552.566406
 -17320.681641
 -17457.251953
 -17464.296875
 -17462.830078
 -17448.914062
 -17559.880859
 -17508.755859
 -17341.103516
 -17332.810547
 -17419.130859
 -17612.949219
 -17623.787109
 -17726.949219
 -17532.781250
 -17407.568359
 -17367.757812
 -17546.152344
 -17521.330078
 -17453.621094
 -17542.517578
 -17414.201172
 -17416.093750
 -17517.404297
 -17665.355469
 -17391.917969
 -17576.863281
 -17566.777344
 -17579.636719
 -17567.798828
 -17474.167969
 -17528.750000
 -17472.251953
 -17418.171875
 -17411.402344
 -17595.199219
 -17442.105469
 -17573.468750
 -17560.917969
 -17631.001953
 -17552.330078
 -17683.531250
 -17574.761719
 -17410.890625
 -17368.976562
 -17372.320312
 -17520.464844
 -17525.794922
 -17497.945312
 -17381.486328
 -17528.931641
 -17557.468750
 -17351.732422
 -17387.527344
 -17681.453125
 -17747.203125
 -17579.580078
 -17461.416016
 -17576.638672
 -17326.363281
 -17605.152344
 -17606.119141
 -17514.193359
 -17272.429688
 -17169.585938
 -17395.052734
 -17541.726562
 -17272.246094
 -17287.218750
 -17555.451172
 -17429.242188
 -17533.277344
 -17592.621094
 -17360.193359
 -17519.804688
 -17527.671875
 -17591.773438
 -17242.994141
 -17758.398438
 -17496.441406
 -17487.761719
 -17474.796875
 -17509.613281
 -17438.289062
 -17188.437500
 -17609.376953
 -17648.419922
 -17572.052734
 -17565.576172
 -17736.841797
 -17514.404297
 -17482.847656
 -17469.304688
 -17286.736328
 -17643.990234
 -17401.710938
 -17468.046875
 -17468.910156
 -17659.263672
 -17460.527344
 -17649.916016
 -17539.197266
 -17572.142578
 -17541.908203
 -17411.935547
 -17392.044922
 -17280.324219
 -17332.927734
 -17510.250000
 -17415.839844
 -17214.650391
 -17348.626953
 -17215.414062
 -17393.365234
 -17309.591797
 -17463.466797
 -17555.525391
 -17524.503906
 -17412.556641
 -17504.371094
 -17352.707031
 -17506.650391
 -17469.955078
 -17352.775391
 -17404.050781
 -17238.330078
 -17429.000000
 -17473.103516
 -17735.527344
 -17500.148438
 -17460.578125
 -17472.337891
 -17493.845703
 -17658.263672
 -17653.693359
 -17677.318359
 -17514.775391
 -17859.175781
 -17325.267578
 -17474.384766
 -17432.951172
 -17470.224609
 -17483.865234
 -17511.244141
 -17644.707031
 -17728.757812
 -17740.531250
 -17780.351562
 -17747.423828
 -17522.380859
 -17705.847656
 -17592.935547
 -17383.632812
 -17360.937500
 -17475.988281
 -17422.242188
 -17312.191406
 -17495.531250
 -17474.802734
 -17466.005859
 -17686.025391
 -17601.083984
 -17490.423828
 -17292.560547
 -17358.619141
 -17351.359375
 -17283.537109
 -17432.933594
 -17451.916016
 -17482.568359
 -17354.343750
 -17556.423828
 -17414.021484
 -17619.441406
 -17310.380859
 -17396.160156
 -17459.246094
 -17389.546875
 -17360.298828
 -17550.029297
 -17471.283203
 -17386.560547
 -17642.052734
 -17514.763672
 -17607.857422
 -17315.746094
 -17382.988281
 -17466.298828
 -17479.458984
 -17572.841797
 -17398.292969
 -17478.472656
 -17338.154297
 -17837.162109
 -17603.814453
 -17773.544922
 -17395.029297
 -17272.179688
 -17288.685547
 -17476.671875
 -17304.220703
 -17394.316406
 -17394.566406
 -17467.804688
 -17682.957031
 -17679.548828
 -17687.447266
 -17382.419922
 -17505.402344
 -17652.816406
 -17629.146484
 -17157.630859
 -17361.669922
 -17449.123047
 -17552.871094
 -17435.804688
 -17307.371094
 -17280.298828
 -17469.291016
 -17534.802734
 -17523.146484
 -17407.677734
 -17388.136719
 -17240.333984
 -17520.382812
 -17350.798828
 -17171.517578
 -17373.558594
 -17467.054688
 -17535.298828
 -17474.498047
 -17535.292969
 -17733.929688
 -17629.576172
 -17502.205078
 -17497.138672
 -17424.544922
 -17529.970703
 -17248.832031
 -17568.767578
 -17665.468750
 -17397.687500
 -17416.544922
 -17559.666016
 -17566.236328
 -17423.359375
 -17248.066406
 -17241.341797
 -17423.244141
 -17243.349609
 -17615.867188
 -17403.675781
 -17460.037109
 -17456.751953
 -17292.031250
 -17474.144531
 -17514.296875
 -17379.408203
 -17646.552734
 -17686.962891
 -17661.082031
 -17491.656250
 -17165.259766
 -17351.796875
 -17495.294922
 -17347.042969
 -17642.757812
 -17416.162109
 -17569.273438
 -17489.863281
 -17406.568359
 -17511.773438
 -17306.914062
 -17402.328125
 -17485.742188
 -17528.998047
 -17568.263672
 -17551.232422
 -17602.593750
 -17822.896484
 -17600.587891
 -17508.046875
 -17489.324219
 -17401.761719
 -17592.619141
 -17747.919922
 -17608.500000
 -17507.787109
 -17558.314453
 -17242.507812
 -17353.652344
 -17357.847656
 -17410.716797
 -17421.724609
 -17469.015625
 -17358.392578
 -17454.615234
 -17658.593750
 -17713.234375
 -17533.394531
 -17617.474609
